Athletic,San Mamés,Liga 2012-2013
Atlético,Vicente Calderón,Liga 2012-2013
Barcelona,Camp Nou,Liga 2012-2013
Celta,Balaídos,Liga 2012-2013
Deportivo,Riazor,Liga 2012-2013
Espanyol,Cornellá,Liga 2012-2013
Getafe,Coliseum Alfonso Pérez,Liga 2012-2013
Granada,Los Cármenes,Liga 2012-2013
Levante,Ciudad de Valencia,Liga 2012-2013
Málaga,La Rosaleda,Liga 2012-2013
Mallorca,Iberostar Stadium,Liga 2012-2013
Osasuna,Reyno de Navarra,Liga 2012-2013
Rayo Vallecano,Municipal de Vallecas,Liga 2012-2013
Betis,Benito Villamarín,Liga 2012-2013
Real Madrid,Santiago Bernabéu,Liga 2012-2013
Real Sociedad,Anoeta,Liga 2012-2013
Real Valladolid,José Zorrilla,Liga 2012-2013
Zaragoza,La Romareda,Liga 2012-2013
Sevilla,Sanchez Pizjuán,Liga 2012-2013
Valencia,Mestalla,Liga 2012-2013
